module gitlab.com/dicemagic/dicemagic

go 1.17

//replace github.com/aasmall/gocui => ../gocui

//replace github.com/aasmall/asciigraph => ../asciigraph

replace gitlab.com/dicemagic/dicemagic/lib/dicelang-errors v0.0.0 => ./lib/dicelang-errors

replace gitlab.com/dicemagic/dicemagic/lib/dicelang v0.0.0 => ./lib/dicelang

require (
	cloud.google.com/go/datastore v1.5.0
	cloud.google.com/go/logging v1.4.2
	github.com/aasmall/asciigraph v0.4.2
	github.com/aasmall/gocui v0.4.0
	github.com/davecgh/go-spew v1.1.1
	github.com/gizak/termui/v3 v3.1.0
	github.com/go-redis/redis/v7 v7.4.1
	github.com/gobuffalo/envy v1.9.0
	github.com/gorilla/mux v1.8.0
	github.com/gorilla/websocket v1.4.2
	github.com/mgutz/ansi v0.0.0-20200706080929-d51e80ef957d
	github.com/serialx/hashring v0.0.0-20200727003509-22c0c7ab6b1b
	github.com/slack-go/slack v0.9.4
	github.com/spf13/viper v1.8.1
	gitlab.com/dicemagic/dicemagic/lib/dicelang v0.0.0
	gitlab.com/dicemagic/dicemagic/lib/dicelang-errors v0.0.0
	golang.org/x/net v0.0.0-20210913180222-943fd674d43e
	google.golang.org/api v0.56.0
	google.golang.org/grpc v1.40.0
	k8s.io/api v0.22.1
	k8s.io/apimachinery v0.22.1
	k8s.io/client-go v0.22.1
)

require (
	cloud.google.com/go v0.94.1 // indirect
	github.com/aasmall/word2number v0.0.0-20180508050052-3e177d961031 // indirect
	github.com/fsnotify/fsnotify v1.5.1 // indirect
	github.com/go-logr/logr v1.1.0 // indirect
	github.com/gogo/protobuf v1.3.2 // indirect
	github.com/golang/groupcache v0.0.0-20210331224755-41bb18bfe9da // indirect
	github.com/golang/protobuf v1.5.2 // indirect
	github.com/google/go-cmp v0.5.6 // indirect
	github.com/google/gofuzz v1.2.0 // indirect
	github.com/googleapis/gax-go/v2 v2.1.0 // indirect
	github.com/googleapis/gnostic v0.5.5 // indirect
	github.com/hashicorp/hcl v1.0.0 // indirect
	github.com/joho/godotenv v1.3.0 // indirect
	github.com/json-iterator/go v1.1.12 // indirect
	github.com/magiconair/properties v1.8.5 // indirect
	github.com/mattn/go-colorable v0.1.8 // indirect
	github.com/mattn/go-isatty v0.0.14 // indirect
	github.com/mattn/go-runewidth v0.0.13 // indirect
	github.com/mitchellh/go-wordwrap v1.0.1 // indirect
	github.com/mitchellh/mapstructure v1.4.2 // indirect
	github.com/modern-go/concurrent v0.0.0-20180306012644-bacd9c7ef1dd // indirect
	github.com/modern-go/reflect2 v1.0.2 // indirect
	github.com/nsf/termbox-go v1.1.1 // indirect
	github.com/pelletier/go-toml v1.9.4 // indirect
	github.com/pkg/errors v0.9.1 // indirect
	github.com/rivo/uniseg v0.2.0 // indirect
	github.com/rogpeppe/go-internal v1.8.0 // indirect
	github.com/spf13/afero v1.6.0 // indirect
	github.com/spf13/cast v1.4.1 // indirect
	github.com/spf13/jwalterweatherman v1.1.0 // indirect
	github.com/spf13/pflag v1.0.5 // indirect
	github.com/subosito/gotenv v1.2.0 // indirect
	go.opencensus.io v0.23.0 // indirect
	golang.org/x/mod v0.4.2 // indirect
	golang.org/x/oauth2 v0.0.0-20210819190943-2bc19b11175f // indirect
	golang.org/x/sync v0.0.0-20210220032951-036812b2e83c // indirect
	golang.org/x/sys v0.0.0-20210910150752-751e447fb3d0 // indirect
	golang.org/x/term v0.0.0-20210615171337-6886f2dfbf5b // indirect
	golang.org/x/text v0.3.7 // indirect
	golang.org/x/time v0.0.0-20210723032227-1f47c861a9ac // indirect
	golang.org/x/tools v0.1.5 // indirect
	golang.org/x/xerrors v0.0.0-20200804184101-5ec99f83aff1 // indirect
	google.golang.org/appengine v1.6.7 // indirect
	google.golang.org/genproto v0.0.0-20210909211513-a8c4777a87af // indirect
	google.golang.org/protobuf v1.27.1 // indirect
	gopkg.in/inf.v0 v0.9.1 // indirect
	gopkg.in/ini.v1 v1.63.0 // indirect
	gopkg.in/yaml.v2 v2.4.0 // indirect
	gopkg.in/yaml.v3 v3.0.0-20210107192922-496545a6307b // indirect
	k8s.io/klog/v2 v2.20.0 // indirect
	k8s.io/utils v0.0.0-20210820185131-d34e5cb4466e // indirect
	sigs.k8s.io/structured-merge-diff/v4 v4.1.2 // indirect
	sigs.k8s.io/yaml v1.2.0 // indirect
)
